main.vcd
$date
	Sun Jul 11 23:37:52 2021
$end
$version
	Icarus Verilog
$end
$timescale
	1ps
$end
$scope module top_module_TB $end
$var wire 1 ! z $end
$var reg 1 " clock $end
$var reg 1 # resetN $end
$var reg 1 $ start $end
$var integer 32 % f [31:0] $end
$var integer 32 & i [31:0] $end
$scope module topModule $end
$var wire 1 " clock $end
$var wire 1 ' dma $end
$var wire 32 ( dma_data_to_memory [31:0] $end
$var wire 4 ) dma_memory_Address [3:0] $end
$var wire 1 ! dma_memory_Read_Enable $end
$var wire 1 ! dma_memory_Write_Enable $end
$var wire 32 * dma_single_data [31:0] $end
$var wire 32 + main_single_data [31:0] $end
$var wire 1 # resetN $end
$var wire 1 $ start $end
$var wire 32 , single_data [31:0] $end
$var wire 1 - memory_Write_Enable $end
$var wire 1 . memory_Read_Enable $end
$var wire 4 / memory_Address [3:0] $end
$var wire 1 0 main_memory_Write_Enable $end
$var wire 1 1 main_memory_Read_Enable $end
$var wire 4 2 main_memory_Address [3:0] $end
$var wire 32 3 main_data_to_memory [31:0] $end
$var wire 32 4 data_to_memory [31:0] $end
$scope module main $end
$var wire 1 " clock $end
$var wire 4 5 offset_A [3:0] $end
$var wire 1 # resetN $end
$var wire 32 6 single_data [31:0] $end
$var wire 1 $ start $end
$var wire 4 7 offset_C [3:0] $end
$var wire 4 8 offset_B [3:0] $end
$var wire 4 9 multiplier_result_ready_packed [3:0] $end
$var wire 4 : memory_Address [3:0] $end
$var wire 1 ; input_block_j_A $end
$var wire 1 < input_block_i_B $end
$var wire 128 = inputC_matrix_flatten [127:0] $end
$var wire 128 > inputB_matrix_flatten [127:0] $end
$var wire 128 ? inputA_matrix_flatten [127:0] $end
$var wire 4 @ adder_result_ready_packed [3:0] $end
$var wire 128 A C [127:0] $end
$var reg 8 B M1Ncolumns [7:0] $end
$var reg 8 C M1Nrows [7:0] $end
$var reg 8 D M2Ncolumns [7:0] $end
$var reg 8 E M2Nrows [7:0] $end
$var reg 1 F block_i $end
$var reg 1 G block_j $end
$var reg 32 H data_to_memory [31:0] $end
$var reg 1 I enable $end
$var reg 8 J first_Counter [7:0] $end
$var reg 1 K load_allA $end
$var reg 1 L load_allB $end
$var reg 1 M load_allC $end
$var reg 1 N load_singleA $end
$var reg 1 O load_singleB $end
$var reg 4 P main_State [3:0] $end
$var reg 1 1 memory_Read_Enable $end
$var reg 1 0 memory_Write_Enable $end
$var reg 4 Q offset [3:0] $end
$var reg 1 R read_from_memory $end
$var reg 1 S resetRegisterA $end
$var reg 1 T resetRegisterB $end
$var reg 1 U resetRegisterC $end
$var reg 8 V second_Counter [7:0] $end
$var reg 1 W shift_leftA $end
$var reg 1 X shift_upB $end
$var reg 1 Y single_i $end
$var reg 1 Z single_j $end
$scope begin genblk1[0] $end
$scope begin genblk2[0] $end
$upscope $end
$scope begin genblk2[1] $end
$upscope $end
$upscope $end
$scope begin genblk1[1] $end
$scope begin genblk2[0] $end
$upscope $end
$scope begin genblk2[1] $end
$upscope $end
$upscope $end
$scope begin genblk3[0] $end
$scope begin genblk4[0] $end
$upscope $end
$scope begin genblk4[1] $end
$upscope $end
$upscope $end
$scope begin genblk3[1] $end
$scope begin genblk4[0] $end
$upscope $end
$scope begin genblk4[1] $end
$upscope $end
$upscope $end
$scope begin genblk5[0] $end
$scope begin mult[0] $end
$scope module mul $end
$var wire 1 " clk $end
$var wire 32 [ i1matrix [31:0] $end
$var wire 32 \ i2matrix [31:0] $end
$var wire 1 ] matrix1_ready $end
$var wire 1 ] matrix2_ready $end
$var wire 1 # resetN $end
$var wire 1 ^ result_ack $end
$var wire 1 _ result_ready $end
$var wire 32 ` omatrix [31:0] $end
$scope begin genblk1[0] $end
$scope begin genblk2[0] $end
$upscope $end
$upscope $end
$scope begin genblk3[0] $end
$scope begin genblk4[0] $end
$scope begin genblk5[0] $end
$scope module m $end
$var wire 1 " clk $end
$var wire 32 a input_a [31:0] $end
$var wire 1 b input_a_ack $end
$var wire 1 ] input_a_stb $end
$var wire 32 c input_b [31:0] $end
$var wire 1 d input_b_ack $end
$var wire 1 ] input_b_stb $end
$var wire 1 ^ output_z_ack $end
$var wire 1 # rst $end
$var wire 1 e output_z_stb $end
$var wire 32 f output_z [31:0] $end
$var reg 32 g a [31:0] $end
$var reg 10 h a_e [9:0] $end
$var reg 24 i a_m [23:0] $end
$var reg 1 j a_s $end
$var reg 32 k b [31:0] $end
$var reg 10 l b_e [9:0] $end
$var reg 24 m b_m [23:0] $end
$var reg 1 n b_s $end
$var reg 1 o guard $end
$var reg 50 p product [49:0] $end
$var reg 1 q round_bit $end
$var reg 1 r s_input_a_ack $end
$var reg 1 s s_input_b_ack $end
$var reg 32 t s_output_z [31:0] $end
$var reg 1 e s_output_z_stb $end
$var reg 4 u state [3:0] $end
$var reg 1 v sticky $end
$var reg 32 w z [31:0] $end
$var reg 10 x z_e [9:0] $end
$var reg 24 y z_m [23:0] $end
$var reg 1 z z_s $end
$upscope $end
$upscope $end
$scope module var $end
$var wire 1 " clk $end
$var wire 1 e data_in_ready $end
$var wire 1 ^ data_out_ack $end
$var wire 1 # resetN $end
$var wire 32 { vector [31:0] $end
$var wire 32 | result [31:0] $end
$var wire 1 } data_out_ready $end
$scope begin genblk1[0] $end
$upscope $end
$scope begin genblk4 $end
$upscope $end
$upscope $end
$upscope $end
$upscope $end
$upscope $end
$upscope $end
$scope begin mult[1] $end
$scope module mul $end
$var wire 1 " clk $end
$var wire 32 ~ i1matrix [31:0] $end
$var wire 32 !" i2matrix [31:0] $end
$var wire 1 "" matrix1_ready $end
$var wire 1 "" matrix2_ready $end
$var wire 1 # resetN $end
$var wire 1 #" result_ack $end
$var wire 1 $" result_ready $end
$var wire 32 %" omatrix [31:0] $end
$scope begin genblk1[0] $end
$scope begin genblk2[0] $end
$upscope $end
$upscope $end
$scope begin genblk3[0] $end
$scope begin genblk4[0] $end
$scope begin genblk5[0] $end
$scope module m $end
$var wire 1 " clk $end
$var wire 32 &" input_a [31:0] $end
$var wire 1 '" input_a_ack $end
$var wire 1 "" input_a_stb $end
$var wire 32 (" input_b [31:0] $end
$var wire 1 )" input_b_ack $end
$var wire 1 "" input_b_stb $end
$var wire 1 #" output_z_ack $end
$var wire 1 # rst $end
$var wire 1 *" output_z_stb $end
$var wire 32 +" output_z [31:0] $end
$var reg 32 ," a [31:0] $end
$var reg 10 -" a_e [9:0] $end
$var reg 24 ." a_m [23:0] $end
$var reg 1 /" a_s $end
$var reg 32 0" b [31:0] $end
$var reg 10 1" b_e [9:0] $end
$var reg 24 2" b_m [23:0] $end
$var reg 1 3" b_s $end
$var reg 1 4" guard $end
$var reg 50 5" product [49:0] $end
$var reg 1 6" round_bit $end
$var reg 1 7" s_input_a_ack $end
$var reg 1 8" s_input_b_ack $end
$var reg 32 9" s_output_z [31:0] $end
$var reg 1 *" s_output_z_stb $end
$var reg 4 :" state [3:0] $end
$var reg 1 ;" sticky $end
$var reg 32 <" z [31:0] $end
$var reg 10 =" z_e [9:0] $end
$var reg 24 >" z_m [23:0] $end
$var reg 1 ?" z_s $end
$upscope $end
$upscope $end
$scope module var $end
$var wire 1 " clk $end
$var wire 1 *" data_in_ready $end
$var wire 1 #" data_out_ack $end
$var wire 1 # resetN $end
$var wire 32 @" vector [31:0] $end
$var wire 32 A" result [31:0] $end
$var wire 1 B" data_out_ready $end
$scope begin genblk1[0] $end
$upscope $end
$scope begin genblk4 $end
$upscope $end
$upscope $end
$upscope $end
$upscope $end
$upscope $end
$upscope $end
$upscope $end
$scope begin genblk5[1] $end
$scope begin mult[0] $end
$scope module mul $end
$var wire 1 " clk $end
$var wire 32 C" i1matrix [31:0] $end
$var wire 32 D" i2matrix [31:0] $end
$var wire 1 E" matrix1_ready $end
$var wire 1 E" matrix2_ready $end
$var wire 1 # resetN $end
$var wire 1 F" result_ack $end
$var wire 1 G" result_ready $end
$var wire 32 H" omatrix [31:0] $end
$scope begin genblk1[0] $end
$scope begin genblk2[0] $end
$upscope $end
$upscope $end
$scope begin genblk3[0] $end
$scope begin genblk4[0] $end
$scope begin genblk5[0] $end
$scope module m $end
$var wire 1 " clk $end
$var wire 32 I" input_a [31:0] $end
$var wire 1 J" input_a_ack $end
$var wire 1 E" input_a_stb $end
$var wire 32 K" input_b [31:0] $end
$var wire 1 L" input_b_ack $end
$var wire 1 E" input_b_stb $end
$var wire 1 F" output_z_ack $end
$var wire 1 # rst $end
$var wire 1 M" output_z_stb $end
$var wire 32 N" output_z [31:0] $end
$var reg 32 O" a [31:0] $end
$var reg 10 P" a_e [9:0] $end
$var reg 24 Q" a_m [23:0] $end
$var reg 1 R" a_s $end
$var reg 32 S" b [31:0] $end
$var reg 10 T" b_e [9:0] $end
$var reg 24 U" b_m [23:0] $end
$var reg 1 V" b_s $end
$var reg 1 W" guard $end
$var reg 50 X" product [49:0] $end
$var reg 1 Y" round_bit $end
$var reg 1 Z" s_input_a_ack $end
$var reg 1 [" s_input_b_ack $end
$var reg 32 \" s_output_z [31:0] $end
$var reg 1 M" s_output_z_stb $end
$var reg 4 ]" state [3:0] $end
$var reg 1 ^" sticky $end
$var reg 32 _" z [31:0] $end
$var reg 10 `" z_e [9:0] $end
$var reg 24 a" z_m [23:0] $end
$var reg 1 b" z_s $end
$upscope $end
$upscope $end
$scope module var $end
$var wire 1 " clk $end
$var wire 1 M" data_in_ready $end
$var wire 1 F" data_out_ack $end
$var wire 1 # resetN $end
$var wire 32 c" vector [31:0] $end
$var wire 32 d" result [31:0] $end
$var wire 1 e" data_out_ready $end
$scope begin genblk1[0] $end
$upscope $end
$scope begin genblk4 $end
$upscope $end
$upscope $end
$upscope $end
$upscope $end
$upscope $end
$upscope $end
$scope begin mult[1] $end
$scope module mul $end
$var wire 1 " clk $end
$var wire 32 f" i1matrix [31:0] $end
$var wire 32 g" i2matrix [31:0] $end
$var wire 1 h" matrix1_ready $end
$var wire 1 h" matrix2_ready $end
$var wire 1 # resetN $end
$var wire 1 i" result_ack $end
$var wire 1 j" result_ready $end
$var wire 32 k" omatrix [31:0] $end
$scope begin genblk1[0] $end
$scope begin genblk2[0] $end
$upscope $end
$upscope $end
$scope begin genblk3[0] $end
$scope begin genblk4[0] $end
$scope begin genblk5[0] $end
$scope module m $end
$var wire 1 " clk $end
$var wire 32 l" input_a [31:0] $end
$var wire 1 m" input_a_ack $end
$var wire 1 h" input_a_stb $end
$var wire 32 n" input_b [31:0] $end
$var wire 1 o" input_b_ack $end
$var wire 1 h" input_b_stb $end
$var wire 1 i" output_z_ack $end
$var wire 1 # rst $end
$var wire 1 p" output_z_stb $end
$var wire 32 q" output_z [31:0] $end
$var reg 32 r" a [31:0] $end
$var reg 10 s" a_e [9:0] $end
$var reg 24 t" a_m [23:0] $end
$var reg 1 u" a_s $end
$var reg 32 v" b [31:0] $end
$var reg 10 w" b_e [9:0] $end
$var reg 24 x" b_m [23:0] $end
$var reg 1 y" b_s $end
$var reg 1 z" guard $end
$var reg 50 {" product [49:0] $end
$var reg 1 |" round_bit $end
$var reg 1 }" s_input_a_ack $end
$var reg 1 ~" s_input_b_ack $end
$var reg 32 !# s_output_z [31:0] $end
$var reg 1 p" s_output_z_stb $end
$var reg 4 "# state [3:0] $end
$var reg 1 ## sticky $end
$var reg 32 $# z [31:0] $end
$var reg 10 %# z_e [9:0] $end
$var reg 24 &# z_m [23:0] $end
$var reg 1 '# z_s $end
$upscope $end
$upscope $end
$scope module var $end
$var wire 1 " clk $end
$var wire 1 p" data_in_ready $end
$var wire 1 i" data_out_ack $end
$var wire 1 # resetN $end
$var wire 32 (# vector [31:0] $end
$var wire 32 )# result [31:0] $end
$var wire 1 *# data_out_ready $end
$scope begin genblk1[0] $end
$upscope $end
$scope begin genblk4 $end
$upscope $end
$upscope $end
$upscope $end
$upscope $end
$upscope $end
$upscope $end
$upscope $end
$scope begin genblk7[0] $end
$scope begin genblk8[0] $end
$scope module add $end
$var wire 1 " clk $end
$var wire 32 +# i1matrix [31:0] $end
$var wire 32 ,# i2matrix [31:0] $end
$var wire 1 -# load $end
$var wire 1 # resetN $end
$var wire 1 .# result_ack $end
$var wire 1 /# result_ready $end
$var wire 32 0# omatrix [31:0] $end
$scope begin genblk1[0] $end
$scope begin genblk2[0] $end
$upscope $end
$upscope $end
$scope begin genblk3[0] $end
$scope begin genblk4[0] $end
$scope module a $end
$var wire 1 " clk $end
$var wire 32 1# input_a [31:0] $end
$var wire 1 2# input_a_ack $end
$var wire 1 -# input_a_stb $end
$var wire 32 3# input_b [31:0] $end
$var wire 1 4# input_b_ack $end
$var wire 1 -# input_b_stb $end
$var wire 1 .# output_z_ack $end
$var wire 1 # rst $end
$var wire 1 5# output_z_stb $end
$var wire 32 6# output_z [31:0] $end
$var reg 32 7# a [31:0] $end
$var reg 10 8# a_e [9:0] $end
$var reg 27 9# a_m [26:0] $end
$var reg 1 :# a_s $end
$var reg 32 ;# b [31:0] $end
$var reg 10 <# b_e [9:0] $end
$var reg 27 =# b_m [26:0] $end
$var reg 1 ># b_s $end
$var reg 1 ?# guard $end
$var reg 1 @# round_bit $end
$var reg 1 A# s_input_a_ack $end
$var reg 1 B# s_input_b_ack $end
$var reg 32 C# s_output_z [31:0] $end
$var reg 1 5# s_output_z_stb $end
$var reg 4 D# state [3:0] $end
$var reg 1 E# sticky $end
$var reg 28 F# sum [27:0] $end
$var reg 32 G# z [31:0] $end
$var reg 10 H# z_e [9:0] $end
$var reg 24 I# z_m [23:0] $end
$var reg 1 J# z_s $end
$upscope $end
$upscope $end
$upscope $end
$upscope $end
$upscope $end
$scope begin genblk8[1] $end
$scope module add $end
$var wire 1 " clk $end
$var wire 32 K# i1matrix [31:0] $end
$var wire 32 L# i2matrix [31:0] $end
$var wire 1 M# load $end
$var wire 1 # resetN $end
$var wire 1 N# result_ack $end
$var wire 1 O# result_ready $end
$var wire 32 P# omatrix [31:0] $end
$scope begin genblk1[0] $end
$scope begin genblk2[0] $end
$upscope $end
$upscope $end
$scope begin genblk3[0] $end
$scope begin genblk4[0] $end
$scope module a $end
$var wire 1 " clk $end
$var wire 32 Q# input_a [31:0] $end
$var wire 1 R# input_a_ack $end
$var wire 1 M# input_a_stb $end
$var wire 32 S# input_b [31:0] $end
$var wire 1 T# input_b_ack $end
$var wire 1 M# input_b_stb $end
$var wire 1 N# output_z_ack $end
$var wire 1 # rst $end
$var wire 1 U# output_z_stb $end
$var wire 32 V# output_z [31:0] $end
$var reg 32 W# a [31:0] $end
$var reg 10 X# a_e [9:0] $end
$var reg 27 Y# a_m [26:0] $end
$var reg 1 Z# a_s $end
$var reg 32 [# b [31:0] $end
$var reg 10 \# b_e [9:0] $end
$var reg 27 ]# b_m [26:0] $end
$var reg 1 ^# b_s $end
$var reg 1 _# guard $end
$var reg 1 `# round_bit $end
$var reg 1 a# s_input_a_ack $end
$var reg 1 b# s_input_b_ack $end
$var reg 32 c# s_output_z [31:0] $end
$var reg 1 U# s_output_z_stb $end
$var reg 4 d# state [3:0] $end
$var reg 1 e# sticky $end
$var reg 28 f# sum [27:0] $end
$var reg 32 g# z [31:0] $end
$var reg 10 h# z_e [9:0] $end
$var reg 24 i# z_m [23:0] $end
$var reg 1 j# z_s $end
$upscope $end
$upscope $end
$upscope $end
$upscope $end
$upscope $end
$upscope $end
$scope begin genblk7[1] $end
$scope begin genblk8[0] $end
$scope module add $end
$var wire 1 " clk $end
$var wire 32 k# i1matrix [31:0] $end
$var wire 32 l# i2matrix [31:0] $end
$var wire 1 m# load $end
$var wire 1 # resetN $end
$var wire 1 n# result_ack $end
$var wire 1 o# result_ready $end
$var wire 32 p# omatrix [31:0] $end
$scope begin genblk1[0] $end
$scope begin genblk2[0] $end
$upscope $end
$upscope $end
$scope begin genblk3[0] $end
$scope begin genblk4[0] $end
$scope module a $end
$var wire 1 " clk $end
$var wire 32 q# input_a [31:0] $end
$var wire 1 r# input_a_ack $end
$var wire 1 m# input_a_stb $end
$var wire 32 s# input_b [31:0] $end
$var wire 1 t# input_b_ack $end
$var wire 1 m# input_b_stb $end
$var wire 1 n# output_z_ack $end
$var wire 1 # rst $end
$var wire 1 u# output_z_stb $end
$var wire 32 v# output_z [31:0] $end
$var reg 32 w# a [31:0] $end
$var reg 10 x# a_e [9:0] $end
$var reg 27 y# a_m [26:0] $end
$var reg 1 z# a_s $end
$var reg 32 {# b [31:0] $end
$var reg 10 |# b_e [9:0] $end
$var reg 27 }# b_m [26:0] $end
$var reg 1 ~# b_s $end
$var reg 1 !$ guard $end
$var reg 1 "$ round_bit $end
$var reg 1 #$ s_input_a_ack $end
$var reg 1 $$ s_input_b_ack $end
$var reg 32 %$ s_output_z [31:0] $end
$var reg 1 u# s_output_z_stb $end
$var reg 4 &$ state [3:0] $end
$var reg 1 '$ sticky $end
$var reg 28 ($ sum [27:0] $end
$var reg 32 )$ z [31:0] $end
$var reg 10 *$ z_e [9:0] $end
$var reg 24 +$ z_m [23:0] $end
$var reg 1 ,$ z_s $end
$upscope $end
$upscope $end
$upscope $end
$upscope $end
$upscope $end
$scope begin genblk8[1] $end
$scope module add $end
$var wire 1 " clk $end
$var wire 32 -$ i1matrix [31:0] $end
$var wire 32 .$ i2matrix [31:0] $end
$var wire 1 /$ load $end
$var wire 1 # resetN $end
$var wire 1 0$ result_ack $end
$var wire 1 1$ result_ready $end
$var wire 32 2$ omatrix [31:0] $end
$scope begin genblk1[0] $end
$scope begin genblk2[0] $end
$upscope $end
$upscope $end
$scope begin genblk3[0] $end
$scope begin genblk4[0] $end
$scope module a $end
$var wire 1 " clk $end
$var wire 32 3$ input_a [31:0] $end
$var wire 1 4$ input_a_ack $end
$var wire 1 /$ input_a_stb $end
$var wire 32 5$ input_b [31:0] $end
$var wire 1 6$ input_b_ack $end
$var wire 1 /$ input_b_stb $end
$var wire 1 0$ output_z_ack $end
$var wire 1 # rst $end
$var wire 1 7$ output_z_stb $end
$var wire 32 8$ output_z [31:0] $end
$var reg 32 9$ a [31:0] $end
$var reg 10 :$ a_e [9:0] $end
$var reg 27 ;$ a_m [26:0] $end
$var reg 1 <$ a_s $end
$var reg 32 =$ b [31:0] $end
$var reg 10 >$ b_e [9:0] $end
$var reg 27 ?$ b_m [26:0] $end
$var reg 1 @$ b_s $end
$var reg 1 A$ guard $end
$var reg 1 B$ round_bit $end
$var reg 1 C$ s_input_a_ack $end
$var reg 1 D$ s_input_b_ack $end
$var reg 32 E$ s_output_z [31:0] $end
$var reg 1 7$ s_output_z_stb $end
$var reg 4 F$ state [3:0] $end
$var reg 1 G$ sticky $end
$var reg 28 H$ sum [27:0] $end
$var reg 32 I$ z [31:0] $end
$var reg 10 J$ z_e [9:0] $end
$var reg 24 K$ z_m [23:0] $end
$var reg 1 L$ z_s $end
$upscope $end
$upscope $end
$upscope $end
$upscope $end
$upscope $end
$upscope $end
$scope begin genblk9[0] $end
$scope begin genblk10[0] $end
$scope begin genblk11[0] $end
$scope begin genblk12[0] $end
$upscope $end
$upscope $end
$upscope $end
$scope begin genblk10[1] $end
$scope begin genblk11[0] $end
$scope begin genblk12[0] $end
$upscope $end
$upscope $end
$upscope $end
$upscope $end
$scope begin genblk9[1] $end
$scope begin genblk10[0] $end
$scope begin genblk11[0] $end
$scope begin genblk12[0] $end
$upscope $end
$upscope $end
$upscope $end
$scope begin genblk10[1] $end
$scope begin genblk11[0] $end
$scope begin genblk12[0] $end
$upscope $end
$upscope $end
$upscope $end
$upscope $end
$scope module registerWshiftsA $end
$var wire 1 " clk $end
$var wire 1 F input_block_i $end
$var wire 1 ; input_block_j $end
$var wire 128 M$ input_matrix_flatten [127:0] $end
$var wire 32 N$ input_single [31:0] $end
$var wire 1 Y input_single_i $end
$var wire 1 Z input_single_j $end
$var wire 1 K load_all $end
$var wire 1 N load_single $end
$var wire 1 S reset $end
$var wire 1 W shift_left $end
$var wire 1 O$ shift_up $end
$var wire 128 P$ output_matrix_flatten [127:0] $end
$scope begin genblk1[0] $end
$scope begin genblk2[0] $end
$scope begin genblk3[0] $end
$scope begin genblk4[0] $end
$upscope $end
$upscope $end
$upscope $end
$scope begin genblk2[1] $end
$scope begin genblk3[0] $end
$scope begin genblk4[0] $end
$upscope $end
$upscope $end
$upscope $end
$upscope $end
$scope begin genblk1[1] $end
$scope begin genblk2[0] $end
$scope begin genblk3[0] $end
$scope begin genblk4[0] $end
$upscope $end
$upscope $end
$upscope $end
$scope begin genblk2[1] $end
$scope begin genblk3[0] $end
$scope begin genblk4[0] $end
$upscope $end
$upscope $end
$upscope $end
$upscope $end
$upscope $end
$scope module registerWshiftsB $end
$var wire 1 " clk $end
$var wire 1 < input_block_i $end
$var wire 1 G input_block_j $end
$var wire 128 Q$ input_matrix_flatten [127:0] $end
$var wire 32 R$ input_single [31:0] $end
$var wire 1 Y input_single_i $end
$var wire 1 Z input_single_j $end
$var wire 1 L load_all $end
$var wire 1 O load_single $end
$var wire 1 T reset $end
$var wire 1 S$ shift_left $end
$var wire 1 X shift_up $end
$var wire 128 T$ output_matrix_flatten [127:0] $end
$scope begin genblk1[0] $end
$scope begin genblk2[0] $end
$scope begin genblk3[0] $end
$scope begin genblk4[0] $end
$upscope $end
$upscope $end
$upscope $end
$scope begin genblk2[1] $end
$scope begin genblk3[0] $end
$scope begin genblk4[0] $end
$upscope $end
$upscope $end
$upscope $end
$upscope $end
$scope begin genblk1[1] $end
$scope begin genblk2[0] $end
$scope begin genblk3[0] $end
$scope begin genblk4[0] $end
$upscope $end
$upscope $end
$upscope $end
$scope begin genblk2[1] $end
$scope begin genblk3[0] $end
$scope begin genblk4[0] $end
$upscope $end
$upscope $end
$upscope $end
$upscope $end
$upscope $end
$scope module registerWshiftsC $end
$var wire 1 " clk $end
$var wire 1 U$ input_block_i $end
$var wire 1 V$ input_block_j $end
$var wire 128 W$ input_matrix_flatten [127:0] $end
$var wire 32 X$ input_single [31:0] $end
$var wire 1 Y$ input_single_i $end
$var wire 1 Z$ input_single_j $end
$var wire 1 M load_all $end
$var wire 1 [$ load_single $end
$var wire 1 U reset $end
$var wire 1 \$ shift_left $end
$var wire 1 ]$ shift_up $end
$var wire 128 ^$ output_matrix_flatten [127:0] $end
$scope begin genblk1[0] $end
$scope begin genblk2[0] $end
$scope begin genblk3[0] $end
$scope begin genblk4[0] $end
$upscope $end
$upscope $end
$upscope $end
$scope begin genblk2[1] $end
$scope begin genblk3[0] $end
$scope begin genblk4[0] $end
$upscope $end
$upscope $end
$upscope $end
$upscope $end
$scope begin genblk1[1] $end
$scope begin genblk2[0] $end
$scope begin genblk3[0] $end
$scope begin genblk4[0] $end
$upscope $end
$upscope $end
$upscope $end
$scope begin genblk2[1] $end
$scope begin genblk3[0] $end
$scope begin genblk4[0] $end
$upscope $end
$upscope $end
$upscope $end
$upscope $end
$upscope $end
$upscope $end
$scope module memory $end
$var wire 1 " clk $end
$var wire 4 _$ i_Address [3:0] $end
$var wire 32 `$ i_Data_In [31:0] $end
$var wire 1 . i_Read_Enable $end
$var wire 1 - i_Write_Enable $end
$var wire 1 # resetN $end
$var reg 32 a$ o_Data_Out [31:0] $end
$var integer 32 b$ i [31:0] $end
$upscope $end
$upscope $end
$upscope $end
$enddefinitions $end
#0
$dumpvars
bx b$
bx a$
bx `$
bx _$
bx ^$
0]$
0\$
0[$
0Z$
0Y$
b0 X$
bx W$
0V$
0U$
bx T$
0S$
bx R$
b0z Q$
bx P$
0O$
bx N$
b0z M$
xL$
bx K$
bx J$
bx I$
bx H$
xG$
bx F$
bx E$
xD$
xC$
xB$
xA$
x@$
bx ?$
bx >$
bx =$
x<$
bx ;$
bx :$
bx 9$
bx 8$
x7$
x6$
bx 5$
x4$
bx 3$
bx 2$
x1$
x0$
x/$
bx .$
bx -$
x,$
bx +$
bx *$
bx )$
bx ($
x'$
bx &$
bx %$
x$$
x#$
x"$
x!$
x~#
bx }#
bx |#
bx {#
xz#
bx y#
bx x#
bx w#
bx v#
xu#
xt#
bx s#
xr#
bx q#
bx p#
xo#
xn#
xm#
bx l#
bx k#
xj#
bx i#
bx h#
bx g#
bx f#
xe#
bx d#
bx c#
xb#
xa#
x`#
x_#
x^#
bx ]#
bx \#
bx [#
xZ#
bx Y#
bx X#
bx W#
bx V#
xU#
xT#
bx S#
xR#
bx Q#
bx P#
xO#
xN#
xM#
bx L#
bx K#
xJ#
bx I#
bx H#
bx G#
bx F#
xE#
bx D#
bx C#
xB#
xA#
x@#
x?#
x>#
bx =#
bx <#
bx ;#
x:#
bx 9#
bx 8#
bx 7#
bx 6#
x5#
x4#
bx 3#
x2#
bx 1#
bx 0#
x/#
x.#
x-#
bx ,#
bx +#
x*#
bx )#
bx (#
x'#
bx &#
bx %#
bx $#
x##
bx "#
bx !#
x~"
x}"
x|"
bx {"
xz"
xy"
bx x"
bx w"
bx v"
xu"
bx t"
bx s"
bx r"
bx q"
xp"
xo"
bx n"
xm"
bx l"
bx k"
xj"
xi"
xh"
bx g"
bx f"
xe"
bx d"
bx c"
xb"
bx a"
bx `"
bx _"
x^"
bx ]"
bx \"
x["
xZ"
xY"
bx X"
xW"
xV"
bx U"
bx T"
bx S"
xR"
bx Q"
bx P"
bx O"
bx N"
xM"
xL"
bx K"
xJ"
bx I"
bx H"
xG"
xF"
xE"
bx D"
bx C"
xB"
bx A"
bx @"
x?"
bx >"
bx ="
bx <"
x;"
bx :"
bx 9"
x8"
x7"
x6"
bx 5"
x4"
x3"
bx 2"
bx 1"
bx 0"
x/"
bx ."
bx -"
bx ,"
bx +"
x*"
x)"
bx ("
x'"
bx &"
bx %"
x$"
x#"
x""
bx !"
bx ~
x}
bx |
bx {
xz
bx y
bx x
bx w
xv
bx u
bx t
xs
xr
xq
bx p
xo
xn
bx m
bx l
bx k
xj
bx i
bx h
bx g
bx f
xe
xd
bx c
xb
bx a
bx `
x_
x^
x]
bx \
bx [
0Z
0Y
xX
xW
bx V
xU
xT
xS
xR
b10 Q
bx P
xO
xN
xM
xL
xK
bx J
xI
bx H
0G
0F
bx E
bx D
bx C
bx B
bx A
bx @
bx ?
bx >
bx =
0<
0;
bx :
bx 9
bx 8
bx 7
bx 6
b10 5
bx 4
bx 3
bx 2
x1
x0
bx /
x.
x-
bx ,
bx +
bx *
b0x )
b0x (
0'
bx &
bx %
x$
1#
0"
x!
$end
#5000
b0 /
b0 _$
b0 2
b0 :
b0 P
1"
#10000
1.
b0 )
b0 (
0!
0j"
0*#
0p"
0o"
0~"
0m"
0}"
b0 "#
0G"
0e"
0M"
0L"
0["
0J"
0Z"
b0 ]"
0$"
0B"
0*"
0)"
08"
0'"
07"
b0 :"
b0 9
0_
0}
0e
0d
0s
0b
0r
b0 u
0I
11
b0 +
b0 6
b0 N$
b0 R$
b0 *
b0 ,
b0 a$
b10000 b$
0"
0#
#15000
01$
07$
06$
0D$
04$
0C$
b0 F$
0o#
0u#
0t#
0$$
0r#
0#$
b0 &$
0O#
0U#
0T#
0b#
0R#
0a#
b0 d#
b0 @
0/#
05#
04#
0B#
02#
0A#
b0 D#
0b
0r
0'"
07"
0J"
0Z"
0m"
0}"
b10000 b$
1"
#20000
0"
1$
1#
#25000
12#
1A#
1R#
1a#
1r#
1#$
14$
1C$
1m"
1}"
1J"
1Z"
1'"
17"
1b
1r
b11110000000000000000000000000000 +
b11110000000000000000000000000000 6
b11110000000000000000000000000000 N$
b11110000000000000000000000000000 R$
b11110000000000000000000000000000 *
b11110000000000000000000000000000 ,
b11110000000000000000000000000000 a$
1"
#30000
0"
#35000
1I
1"
#40000
0"
#45000
b1 /
b1 _$
b1 2
b1 :
b1 P
1"
#50000
0"
#55000
b0 3#
b0 ,#
b0 S#
b0 L#
b0 s#
b0 l#
b0 5$
b0 .$
b0 c
b0 \
b0 ("
b0 !"
b0 K"
b0 D"
b0 n"
b0 g"
b0 a
b0 [
b0 &"
b0 ~
b0 I"
b0 C"
b0 l"
b0 f"
b0 =
b0 ^$
b0 >
b0 T$
b0 ?
b0 P$
b10 /
b10 _$
b10 2
b10 :
b1 )
b1 (
1!
0-
b1000000100000001000000001 +
b1000000100000001000000001 6
b1000000100000001000000001 N$
b1000000100000001000000001 R$
b1000000100000001000000001 *
b1000000100000001000000001 ,
b1000000100000001000000001 a$
1R
0U
0M
0T
0L
0X
0O
0S
0K
0W
0N
b0 V
b0 J
b10 P
00
1"
#60000
0"
#65000
b100 8
b110 7
b0 )
b0 (
0!
b1 C
b10 B
b10 E
b1 D
b11 P
b111111100000000000000000000000 +
b111111100000000000000000000000 6
b111111100000000000000000000000 N$
b111111100000000000000000000000 R$
b111111100000000000000000000000 *
b111111100000000000000000000000 ,
b111111100000000000000000000000 a$
1"
#70000
0"
#75000
1N
1U
1T
1S
0R
1"
#80000
0"
#85000
b11 /
b11 _$
b11 2
b11 :
b111111100000000000000000000000 a
b111111100000000000000000000000 [
b111111100000000000000000000000 ?
b111111100000000000000000000000 P$
0N
1;
1<
1G
1R
1"
#90000
0"
#95000
b1000000101000000000000000000000 +
b1000000101000000000000000000000 6
b1000000101000000000000000000000 N$
b1000000101000000000000000000000 R$
b1000000101000000000000000000000 *
b1000000101000000000000000000000 ,
b1000000101000000000000000000000 a$
1N
0R
1"
#100000
0"
#105000
b100 /
b100 _$
b100 2
b100 :
b1000000101000000000000000000000 &"
b1000000101000000000000000000000 ~
b100000010100000000000000000000000111111100000000000000000000000 ?
b100000010100000000000000000000000111111100000000000000000000000 P$
0N
b100 Q
b100 P
0;
0<
0G
1R
1"
#110000
0"
#115000
b1000000100000000000000000000000 +
b1000000100000000000000000000000 6
b1000000100000000000000000000000 N$
b1000000100000000000000000000000 R$
b1000000100000000000000000000000 *
b1000000100000000000000000000000 ,
b1000000100000000000000000000000 a$
1O
0R
1"
#120000
0"
0$
