var.vcd
$date
	Sat Jul 10 17:22:23 2021
$end
$version
	Icarus Verilog
$end
$timescale
	1ps
$end
$scope module vector_add_reduce_tb $end
$var wire 1 ! result_ready $end
$var wire 32 " result [31:0] $end
$var reg 1 # clk $end
$var reg 4 $ data_in_ready [0:3] $end
$var reg 1 % resetN $end
$var reg 1 & result_ack $end
$var reg 128 ' vector [127:0] $end
$scope module var $end
$var wire 1 # clk $end
$var wire 4 ( data_in_ready [3:0] $end
$var wire 1 & data_out_ack $end
$var wire 1 % resetN $end
$var wire 128 ) vector [127:0] $end
$var wire 64 * resvec [63:0] $end
$var wire 32 + result [31:0] $end
$var wire 2 , med_data_out_ready [1:0] $end
$var wire 1 ! data_out_ready $end
$scope begin genblk1[0] $end
$upscope $end
$scope begin genblk1[1] $end
$upscope $end
$scope begin genblk1[2] $end
$upscope $end
$scope begin genblk1[3] $end
$upscope $end
$scope begin genblk2[0] $end
$scope module a $end
$var wire 32 - Number1 [31:0] $end
$var wire 32 . Number2 [31:0] $end
$var wire 1 # clk $end
$var wire 1 / load $end
$var wire 1 % reset $end
$var wire 1 & result_ack $end
$var wire 32 0 Result [31:0] $end
$var reg 24 1 Add1_mant_80 [23:0] $end
$var reg 24 2 Add_mant_80 [23:0] $end
$var reg 8 3 Final_expo_80 [7:0] $end
$var reg 23 4 Final_mant_80 [22:0] $end
$var reg 1 5 Final_sign_80 $end
$var reg 23 6 L_mantissa_80 [22:0] $end
$var reg 23 7 Large_mantissa_80 [22:0] $end
$var reg 8 8 Larger_exp_80 [7:0] $end
$var reg 32 9 Num_shift_80 [31:0] $end
$var reg 32 : Result_80 [31:0] $end
$var reg 23 ; S_mantissa_80 [22:0] $end
$var reg 23 < Small_exp_mantissa_80 [22:0] $end
$var reg 8 = e1_80 [7:0] $end
$var reg 8 > e2_80 [7:0] $end
$var reg 23 ? m1_80 [22:0] $end
$var reg 23 @ m2_80 [22:0] $end
$var reg 32 A number1_copy [31:0] $end
$var reg 32 B number2_copy [31:0] $end
$var reg 4 C renorm_shift_80 [3:0] $end
$var reg 1 D result_ready $end
$var reg 1 E s1_80 $end
$var reg 1 F s2_80 $end
$var reg 1 G start $end
$var reg 2 H state [1:0] $end
$var integer 32 I renorm_exp_80 [31:0] $end
$upscope $end
$upscope $end
$scope begin genblk2[2] $end
$scope module a $end
$var wire 32 J Number1 [31:0] $end
$var wire 32 K Number2 [31:0] $end
$var wire 1 # clk $end
$var wire 1 L load $end
$var wire 1 % reset $end
$var wire 1 & result_ack $end
$var wire 32 M Result [31:0] $end
$var reg 24 N Add1_mant_80 [23:0] $end
$var reg 24 O Add_mant_80 [23:0] $end
$var reg 8 P Final_expo_80 [7:0] $end
$var reg 23 Q Final_mant_80 [22:0] $end
$var reg 1 R Final_sign_80 $end
$var reg 23 S L_mantissa_80 [22:0] $end
$var reg 23 T Large_mantissa_80 [22:0] $end
$var reg 8 U Larger_exp_80 [7:0] $end
$var reg 32 V Num_shift_80 [31:0] $end
$var reg 32 W Result_80 [31:0] $end
$var reg 23 X S_mantissa_80 [22:0] $end
$var reg 23 Y Small_exp_mantissa_80 [22:0] $end
$var reg 8 Z e1_80 [7:0] $end
$var reg 8 [ e2_80 [7:0] $end
$var reg 23 \ m1_80 [22:0] $end
$var reg 23 ] m2_80 [22:0] $end
$var reg 32 ^ number1_copy [31:0] $end
$var reg 32 _ number2_copy [31:0] $end
$var reg 4 ` renorm_shift_80 [3:0] $end
$var reg 1 a result_ready $end
$var reg 1 b s1_80 $end
$var reg 1 c s2_80 $end
$var reg 1 d start $end
$var reg 2 e state [1:0] $end
$var integer 32 f renorm_exp_80 [31:0] $end
$upscope $end
$upscope $end
$scope begin genblk3 $end
$scope module var $end
$var wire 1 # clk $end
$var wire 2 g data_in_ready [1:0] $end
$var wire 1 & data_out_ack $end
$var wire 1 % resetN $end
$var wire 64 h vector [63:0] $end
$var wire 32 i resvec [31:0] $end
$var wire 32 j result [31:0] $end
$var wire 1 k med_data_out_ready $end
$var wire 1 ! data_out_ready $end
$scope begin genblk1[0] $end
$upscope $end
$scope begin genblk1[1] $end
$upscope $end
$scope begin genblk2[0] $end
$scope module a $end
$var wire 32 l Number1 [31:0] $end
$var wire 32 m Number2 [31:0] $end
$var wire 1 # clk $end
$var wire 1 n load $end
$var wire 1 % reset $end
$var wire 1 & result_ack $end
$var wire 32 o Result [31:0] $end
$var reg 24 p Add1_mant_80 [23:0] $end
$var reg 24 q Add_mant_80 [23:0] $end
$var reg 8 r Final_expo_80 [7:0] $end
$var reg 23 s Final_mant_80 [22:0] $end
$var reg 1 t Final_sign_80 $end
$var reg 23 u L_mantissa_80 [22:0] $end
$var reg 23 v Large_mantissa_80 [22:0] $end
$var reg 8 w Larger_exp_80 [7:0] $end
$var reg 32 x Num_shift_80 [31:0] $end
$var reg 32 y Result_80 [31:0] $end
$var reg 23 z S_mantissa_80 [22:0] $end
$var reg 23 { Small_exp_mantissa_80 [22:0] $end
$var reg 8 | e1_80 [7:0] $end
$var reg 8 } e2_80 [7:0] $end
$var reg 23 ~ m1_80 [22:0] $end
$var reg 23 !" m2_80 [22:0] $end
$var reg 32 "" number1_copy [31:0] $end
$var reg 32 #" number2_copy [31:0] $end
$var reg 4 $" renorm_shift_80 [3:0] $end
$var reg 1 k result_ready $end
$var reg 1 %" s1_80 $end
$var reg 1 &" s2_80 $end
$var reg 1 '" start $end
$var reg 2 (" state [1:0] $end
$var integer 32 )" renorm_exp_80 [31:0] $end
$upscope $end
$upscope $end
$scope begin genblk3 $end
$scope module var $end
$var wire 1 # clk $end
$var wire 1 k data_in_ready $end
$var wire 1 & data_out_ack $end
$var wire 1 % resetN $end
$var wire 32 *" vector [31:0] $end
$var wire 32 +" result [31:0] $end
$var wire 1 ! data_out_ready $end
$scope begin genblk1[0] $end
$upscope $end
$scope begin genblk4 $end
$upscope $end
$upscope $end
$upscope $end
$upscope $end
$upscope $end
$upscope $end
$upscope $end
$enddefinitions $end
#0
$dumpvars
b0 +"
b0 *"
bx )"
b0 ("
0'"
x&"
x%"
bx $"
b0 #"
b0 ""
bx !"
bx ~
bx }
bx |
bx {
bx z
b0 y
bx x
bx w
bx v
bx u
xt
bx s
bx r
bx q
bx p
b0 o
0n
b0 m
b0 l
0k
b0 j
b0 i
b0 h
b0 g
bx f
b0 e
0d
xc
xb
0a
bx `
b0 _
b0 ^
bx ]
bx \
bx [
bx Z
bx Y
bx X
b0 W
bx V
bx U
bx T
bx S
xR
bx Q
bx P
bx O
bx N
b0 M
xL
bx K
bx J
bx I
b0 H
0G
xF
xE
0D
bx C
b0 B
b0 A
bx @
bx ?
bx >
bx =
bx <
bx ;
b0 :
bx 9
bx 8
bx 7
bx 6
x5
bx 4
bx 3
bx 2
bx 1
b0 0
x/
bx .
bx -
b0 ,
b0 +
b0 *
bx )
bx (
bx '
x&
0%
bx $
0#
b0 "
0!
$end
#1000
b0 9
b0 V
b0 x
#5000
1#
#10000
1/
1L
b111111100000000000000000010100 -
b111111100000000000000000001000 .
b111111100000000000000000000100 J
b111111100000000000000000000000 K
0#
0&
b1111 $
b1111 (
b111111100000000000000000000000001111111000000000000000000001000011111110000000000000000000100000111111100000000000000000010100 '
b111111100000000000000000000000001111111000000000000000000001000011111110000000000000000000100000111111100000000000000000010100 )
1%
#15000
b1 H
b111111100000000000000000001000 B
b111111100000000000000000010100 A
b1 e
b111111100000000000000000000000 _
b111111100000000000000000000100 ^
1#
#20000
0#
#25000
b1000000000000000000000000000010 m
b1000000000000000000000000001110 l
b1000000000000000000000000000010 M
b1000000000000000000000000000010 W
0R
b10 Q
b100 N
b10000000 P
b1 f
b1 `
b100000000000000000000010 O
b10000000000000000000010 S
b10000000000000000000000 X
b10000000000000000000000 T
b10000000000000000000010 Y
b1111111 U
0c
0b
b0 ]
b100 \
b1111111 [
b1111111 Z
b100000000000000000000000000001001000000000000000000000000001110 *
b100000000000000000000000000001001000000000000000000000000001110 h
b1000000000000000000000000001110 0
b1000000000000000000000000001110 :
05
b1110 4
b11100 1
b10000000 3
b1 I
b1 C
b100000000000000000001110 2
b10000000000000000001010 6
b10000000000000000000100 ;
b10000000000000000000100 7
b10000000000000000001010 <
b1111111 8
0F
0E
b1000 @
b10100 ?
b1111111 >
b1111111 =
b10 e
1d
b10 H
1G
1#
#30000
0#
#35000
1n
1D
b11 ,
b11 g
1a
1#
#40000
0#
#45000
b1 ("
b1000000000000000000000000000010 #"
b1000000000000000000000000001110 ""
1#
#50000
0#
#55000
b1000000100000000000000000001000 "
b1000000100000000000000000001000 +
b1000000100000000000000000001000 j
b1000000100000000000000000001000 +"
b1000000100000000000000000001000 i
b1000000100000000000000000001000 o
b1000000100000000000000000001000 y
b1000000100000000000000000001000 *"
0t
b1000 s
b10000 p
b10000001 r
b1 )"
b1 $"
b100000000000000000001000 q
b10000000000000000000111 u
b10000000000000000000001 z
b10000000000000000000001 v
b10000000000000000000111 {
b10000000 w
0&"
0%"
b10 !"
b1110 ~
b10000000 }
b10000000 |
b10 ("
1'"
1#
#60000
0#
#65000
1!
1k
1#
